#
# ポリラインビューア
#
------------------------------------------------------------
リリース日：	2014/12/13
バージョン：	0.002
更新内容：
・表示が上下逆になっていた不具合を修正
・サイズ変更時にサイズの調整を行う
------------------------------------------------------------
リリース日：	2014/12/07
バージョン：	0.001
更新内容：
・新規開発
------------------------------------------------------------
